{
    "en": {
        "Email subscriptions": "E-mail subscriptions",
        "description": "{via} sends out multiple e-mailings, all with their specific purpose. In this overview, you can see the available e-mail subscriptions with their frequency and which you are currently subscribed to. Use the buttons on the right to (un)subscribe from any of those. You will still receive e-mails from {via} about events you have registered for, regardless of the settings on this page.",
        "Requires membership.": "Requires membership",
        "Subscribe": "Subscribe",
        "Unsubscribe": "Unsubscribe",
        "Subscribed": "Subscribed",
        "Unsubscribed": "Unsubscribed",
        "notification.subscribed": "You have succesfully subscribed to {listName}",
        "notification.unsubscribed": "You have succesfully unsubscribed from {listName}"
    },
    "nl": {
        "Email subscriptions": "E-mail-inschrijvingen",
        "description": "{via} verstuurd meerdere e-mailings, allemaal met een specifiek doel. In dit overzicht kan je de e-mail ingeschrijving zien met hun verzendfrequentie en welke van de e-mailings je nu ontvangt. Gebruik de knoppen aan de rechterkant om je uit- of in te schrijven. Je zal altijd e-mails blijven ontvangen over voor activiteiten waar je voor bent ingeschreven, ongeacht de instellingen op deze pagina.",
        "Requires membership.": "Lidmaatschap vereist",
        "Subscribe": "Aanmelden",
        "Unsubscribe": "Afmelden",
        "Subscribed": "Aangemeld",
        "Unsubscribed": "Afgemeld",
        "notification.subscribed": "Je bent succesvol aangemeld voor {listName}",
        "notification.unsubscribed": "Je bent succesvol afgemeld van {listName}"
    }
}
