{
    "en": {
        "Upload minutes": "Parse minutes",
        "Please upload the full minutes zip file from Overleaf.": "Please upload the full minutes zip file from Overleaf. All usefull information from the minutes will be extracted. Before saving, you get the chance to review the data.",
        "Minutes archive": "Minutes archive",
        "Assembly information": "Assembly information",
        "Warning": "Warning",
        "A number of problems have been detected in the minutes:": "A number of problems have been detected in the minutes:",
        "Title": "Title",
        "Start time": "Start time",
        "End time": "End time",
        "Location": "Location",
        "Present": "Present",
        "Proxies": "Proxies",
        "Vote: ": "Vote: ",
        "Agenda": "Agenda",
        "Decisions & tasks": "Decisions & tasks",
        "If the above information looks correct, save it.": "If the above information looks correct, save it.",
        "Data successfully saved.": "Data successfully saved.",
        "No presidium": "No presidium",
        "More information": "More information",
        "Sign up": "Sign up",
        "Did you know you can earn €10,- by taking minutes during a general assembly?": "Did you know you can earn €10,- by taking minutes during a general assembly?",
        "Send an email to": "Send an email to ",
        "General assemblies": "General assemblies",
        "The status of the minutes is unclear.": "The status of the minutes is unclear.",
        "The minutes have been accepted.": "The minutes have been accepted.",
        "The minutes are available, but not accepted yet.": "The minutes are available, but not accepted yet.",
        "Create assembly": "Create assembly",
        "Activity": "Activity",
        "General assembly successfully saved.": "General assembly successfully saved.",
        "Chairman": "Chairman",
        "Create general assembly": "Create general assembly",
        "Date": "Date",
        "Dutch name": "Dutch name",
        "Edit general assembly": "Edit general assembly",
        "English name": "English name",
        "Please enter the date": "Please enter the date",
        "Please enter the dutch name": "Please enter the Dutch name",
        "Please enter the english name": "Please enter the English name",
        "Secretary": "Secretary",
        "Assembly": "Assembly",
        "Assemblies": "Assemblies",
        "Create": "Create",
        "Details": "Details",
        "Minutes": "Minutes",
        "Documents": "Documents",
        "Versions": "Versions",
        "Latest": "Latest",
        "New version": "New version",
        "Edit documents": "Edit documents",
        "Click or drag to upload": "Click or drag to upload",
        "Leave this empty to keep the current version.": "Leave this empty to keep the current version.",
        "Save": "Save",
        "Successfully saved document.": "Successfully saved document.",
        "Please enter a Dutch name": "Please enter a Dutch name",
        "Please enter an English name": "Please enter an English name",
        "Version": "Version",
        "Overleaf Parser": "Overleaf Parser",
        "Current": "Current Version",
        "Minutes status": "Minutes status",
        "Accepted": "Accepted",
        "Not accepted": "Not accepted",
        "Unknown": "Unknown",
        "Upload": "Upload",
        "Please select a status.": "Please select a status.",
        "There are no minutes currently uploaded.": "There are no minutes currently uploaded.",
        "Successfully created document.": "Successfully created document.",
        "No documents": "No documents",
        "New document": "New document",
        "Please upload a file.": "Please upload a file.",
        "Minutes for ": "Minutes for ",
        "Cancel": "Cancel",
        "Votes": "Votes",
        "Decisions": "Decisions",
        "Not available": "Not available",
        "There are no minutes available (yet) for this assembly.": "There are no minutes available (yet) for this assembly.",
        "Timeline": "Timeline",
        "All events": "All events",
        "Opening ": "Opening ",
        "Closed ": "Closed ",
        "Tasks": "Tasks",
        "Voting proposal: ": "Voting proposal: ",
        "No chairman": "No chairman",
        "No secretary": "No secretary",
        "Participants": "Participants",
        "ALV Disclaimer": "Disclaimer: general assemblies are held in Dutch. Thus, most documents are not translated.",
        "Nothing to see here.": "Nothing to see here.",
        "No proxies": "No proxies"
    },
    "nl": {
        "Upload minutes": "Parse notulen",
        "Please upload the full minutes zip file from Overleaf.": "Upload het volledige zip-bestand van Overleaf, dan zal alle nuttige informatie uit de notulen gehaald worden. Hieronder kunt u de data bekijken voordat het opgeslagen wordt.",
        "Minutes archive": "Archiefbestand",
        "Assembly information": "ALV-informatie",
        "Warning": "Waarschuwing",
        "A number of problems have been detected in the minutes:": "Een aantal problemen zijn gedetecteerd:",
        "Title": "Titel",
        "Start time": "Starttijd",
        "End time": "Eindtijd",
        "Location": "Locatie",
        "Present": "Aanwezig",
        "Proxies": "Machtigingen",
        "Vote: ": "Stemming: ",
        "Agenda": "Agenda",
        "Decisions & tasks": "Besluiten & taken",
        "If the above information looks correct, save it.": "Als de data er correct uit ziet, sla het dan hier op.",
        "Data successfully saved.": "Succesvol opgeslagen.",
        "No presidium": "Geen presidium",
        "More information": "Meer informatie",
        "Sign up": "Inschrijven",
        "Did you know you can earn €10,- by taking minutes during a general assembly?": "Wist je dat je €10,- kan verdienen met het notuleren van een ALV?",
        "Send an email to": "Stuur een mailtje naar ",
        "General assemblies": "Algemene ledenvergaderingen",
        "The status of the minutes is unclear.": "Het is onduidelijk of de notulen zijn ingestemd.",
        "The minutes have been accepted.": "De notulen zijn ingestemd.",
        "The minutes are available, but not accepted yet.": "De notulen zijn beschikbaar, maar nog niet ingestemd.",
        "Create assembly": "ALV aanmaken",
        "Activity": "Activiteit",
        "General assembly successfully saved.": "Algemene ledenvergadering succesvol opgeslagen.",
        "Chairman": "Voorzitter",
        "Create general assembly": "Algemene ledenvergadering aanmaken",
        "Date": "Datum",
        "Dutch name": "Nederlandse naam",
        "Edit general assembly": "Algemene ledenvergadering aanpassen",
        "English name": "Engelse naam",
        "Please enter the date": "Vul een datum in",
        "Please enter the dutch name": "Vul een Nederlandse naam in",
        "Please enter the english name": "Vul een Engelse naam in",
        "Secretary": "Secretaris",
        "Assembly": "ALV",
        "Assemblies": "ALV's",
        "Create": "Aanmaken",
        "Details": "Details",
        "Minutes": "Notulen",
        "Documents": "Documenten",
        "Versions": "Versies",
        "Latest": "Nieuwste",
        "New version": "Nieuwe versie",
        "Edit documents": "Documenten aanpassen",
        "Click or drag to upload": "Klik of sleep om te uploaden",
        "Leave this empty to keep the current version.": "Laat dit leeg om de huidige versie te houden.",
        "Save": "Opslaan",
        "Successfully saved document.": "Document succesvol opgeslagen.",
        "Please enter a Dutch name": "Voer een Nederlandse naam in.",
        "Please enter an English name": "Voer een Engelse naam in.",
        "Version": "Versie",
        "Overleaf Parser": "Overleaf Parser",
        "Current": "Huidige versie",
        "Minutes status": "Status van notulen",
        "Accepted": "Ingestemd",
        "Not accepted": "Niet ingestemd",
        "Unknown": "Onduidelijk",
        "Upload": "Upload",
        "Please select a status.": "Selecteer een status.",
        "There are no minutes currently uploaded.": "Er zijn nog geen notulen.",
        "Successfully created document.": "Document aangemaakt.",
        "No documents": "Geen documenten",
        "New document": "Nieuw document",
        "Please upload a file.": "Upload een bestand.",
        "Minutes for ": "Notulen van ",
        "Cancel": "Annuleren",
        "Votes": "Stemmingen",
        "Decisions": "Besluiten",
        "Not available": "Niet beschikbaar",
        "There are no minutes available (yet) for this assembly.": "Er zijn (nog) geen notulen beschikbaar voor deze ALV.",
        "Timeline": "Tijdlijn",
        "All events": "Alles",
        "Opening ": "Opening ",
        "Closed ": "Sluiting ",
        "Tasks": "Taken",
        "Voting proposal: ": "Stemvoorstel: ",
        "No chairman": "Geen voorzitter",
        "No secretary": "Geen notulist",
        "Participants": "Deelnemers",
        "ALV Disclaimer": "Dit zou niet zichtbaar moeten zijn.",
        "Nothing to see here.": "Niks gevonden.",
        "No proxies": "Geen machtigingen"
    }
}
