{
    "en": {
        "Page overview": "Page overview",
        "Create new page": "Create new page",
        "History": "History",
        "Path": "Path",
        "Action": "Action"
    },
    "nl": {
        "Page overview": "Paginaoverzicht",
        "Create new page": "Nieuwe pagina maken",
        "History": "Geschiedenis",
        "Path": "Pad",
        "Action": "Actie"
    }
}
